텍스트 데이터에서 화자의 의도 파악하기
…
---

## 단일 열 선택

`lead_time`만 보기(예약과 도착 날짜 사이의 일수):

```r
select(hotels, lead_time)
```

```
## # A tibble: 119,390 × 1
##   lead_time
##       <dbl>
## 1       342
## 2       737
## 3         7
## 4        13
## 5        14
## 6        14
## # … with 119,384 more rows
```
…
---

## 단일 열 선택

.pull-left[

```r
select( 
  hotels, 
  lead_time
  )
```

```
## # A tibble: 119,390 × 1
##   lead_time
##       <dbl>
## 1       342
## 2       737
## 3         7
## 4        13
## 5        14
## 6        14
## # … with 119,384 more rows
```
…
---

.tip[
dplyr 함수는 항상 데이터 프레임을 기대하고 항상 데이터 프레임을 생성합니다.
]

```r
select(hotels, lead_time)
```

```
## # A tibble: 119,390 × 1
##   lead_time
##       <dbl>
## 1       342
## 2       737
## 3         7
## 4        13
## 5        14
## 6        14
## # … with 119,384 more rows
```
…
## 여러 열 선택

`hotel` 종류와 `lead_time`만 보기:

--

.pull-left[

```r
select(hotels, hotel, lead_time)
```

```
## # A tibble: 119,390 × 2
##   hotel        lead_time
##   <chr>            <dbl>
## 1 Resort Hotel       342
## 2 Resort Hotel       737
## 3 Resort Hotel         7
## 4 Resort Hotel        13
## 5 Resort Hotel        14
## 6 Resort Hotel        14
## # … with 119,384 more rows
```
…
---

## 데이터 조작, step-by-step

.pull-left[
변수 선택:

```r
hotels %>%
  select(hotel, lead_time)
```

```
## # A tibble: 119,390 × 2
##   hotel        lead_time
##   <chr>            <dbl>
## 1 Resort Hotel       342
## 2 Resort Hotel       737
## 3 Resort Hotel         7
## 4 Resort Hotel        13
## 5 Resort Hotel        14
## 6 Resort Hotel        14
## # … with 119,384 more rows
```
]

--
.pull-right[
변수 선택 후 정렬:

```r
hotels %>%
  select(hotel, lead_time) %>%
  arrange(desc(lead_time))
```

```
## # A tibble: 119,390 × 2
##   hotel        lead_time
##   <chr>            <dbl>
## 1 Resort Hotel       737
## 2 Resort Hotel       709
## 3 City Hotel         629
## 4 City Hotel         629
## 5 City Hotel         629
## 6 City Hotel         629
## # … with 119,384 more rows
```
…
.pull-left[
- 데이터 프레임 `hotels`로 시작하여, 그 값을 `select()` 함수에 전달합니다.
]
.pull-right[
.small[

```r
*hotels %>%
  select(hotel, lead_time) %>%
  arrange(desc(lead_time))
```

```
## # A tibble: 119,390 × 2
##   hotel        lead_time
##   <chr>            <dbl>
## 1 Resort Hotel       737
## 2 Resort Hotel       709
## 3 City Hotel         629
## 4 City Hotel         629
## 5 City Hotel         629
## 6 City Hotel         629
## # … with 119,384 more rows
```
…
.pull-left[
- 데이터 프레임 `hotels`로 시작하여, 그 값을 `select()` 함수에 전달합니다.
- 그런 다음, `hotel`과 `lead_time` 변수를 선택합니다.
]
.pull-right[
.small[

```r
hotels %>%
* select(hotel, lead_time) %>%
  arrange(desc(lead_time))
```

```
## # A tibble: 119,390 × 2
##   hotel        lead_time
##   <chr>            <dbl>
## 1 Resort Hotel       737
## 2 Resort Hotel       709
## 3 City Hotel         629
## 4 City Hotel         629
## 5 City Hotel         629
## 6 City Hotel         629
## # … with 119,384 more rows
```
…
```r
hotels %>%
  select(hotel, lead_time) %>% 
* arrange(desc(lead_time))
```

```
## # A tibble: 119,390 × 2
##   hotel        lead_time
##   <chr>            <dbl>
## 1 Resort Hotel       737
## 2 Resort Hotel       709
## 3 City Hotel         629
## 4 City Hotel         629
## 5 City Hotel         629
## 6 City Hotel         629
## # … with 119,384 more rows
```
…
