Dongsu 웹 사이트: 캡스톤 프로젝트
…
[1]  0.12945047 40.76406189  0.07686428  0.06227639  0.05763711
[6]  0.04180651  0.03097738  0.03750115  0.03150149

which.min(alpha)

[1] 7

Top beta 단어의 시각화

prob <- tidytext::tidy(models[[9]], matrix = "beta")
prob

# A tibble: 1,790 × 3
   topic term          beta
   <int> <chr>        <dbl>
 1     1 스페인   3.72e- 44
 2     2 스페인   3.72e- 44
 3     3 스페인   7.86e-321
 4     4 스페인   3.72e- 44
 5     5 스페인   3.72e- 44
 6     6 스페인 Inf.  e-324
 7     7 스페인   3.72e- 44
 8     8 스페인   3.72e- 44
 9     9 스페인   3.85e- 58
10    10 스페인   5.24e-  2
# … with 1,780 more rows

top_prob <- prob %>% 
  group_by(topic) %>% 
  top_n(10, beta) %>% 
  ungroup() %>% 
  arrange(topic, -beta)
top_prob

# A tibble: 106 × 3
   topic term       beta
   <int> <chr>     <dbl>
 1     1 메시     0.0818
 2     1 만       0.0655
 3     1 승부차기 0.0607
 4     1 네덜란드 0.0486
 5     1 끝       0.0448
 6     1 통산     0.0369
 7     1 기록     0.0339
 8     1 최다     0.0317
 9     1 호골     0.0295
10     1 프랑스   0.0295
# … with 96 more rows
…
(#fig:plot_top_prob)Top beta 단어의 시각화

문서에서의 토픽의 비중

news_gamma <- tidytext::tidy(models[[9]], matrix = "gamma") %>% 
  mutate(gamma = gamma * 100)

news_gamma

# A tibble: 10,000 × 3
   document topic gamma
   <chr>    <int> <dbl>
 1 40           1 0.431
 2 139          1 0.431
 3 238          1 0.431
 4 337          1 0.431
 5 436          1 0.431
 6 535          1 0.431
 7 634          1 0.431
 8 733          1 0.431
 9 832          1 0.431
10 931          1 0.431
# … with 9,990 more rows
…
토픽 1의 주요 단어는 다음과 같습니다.

terms(models[[9]], 10)[, 1]

 [1] "메시"     "만"       "승부차기" "네덜란드" "끝"       "통산"    
 [7] "기록"     "최다"     "호골"     "프랑스"  

토픽 1이 95% 이상 포함된 문서를 조회합니다.

news_gamma %>%
  filter(topic == 1) %>%
  filter(gamma >= 95) %>%
  arrange(desc(gamma))

# A tibble: 68 × 3
   document topic gamma
   <chr>    <int> <dbl>
 1 45           1  98.7
 2 144          1  98.7
 3 243          1  98.7
 4 342          1  98.7
 5 441          1  98.7
 6 540          1  98.7
 7 639          1  98.7
 8 738          1  98.7
 9 837          1  98.7
10 936          1  98.7
# … with 58 more rows
…
모델의 이해

library(broom)

coefs_tf <- classifier_tf$glmnet.fit %>%
  tidy() %>%
  filter(lambda == classifier_tf$lambda.1se)
coefs_tf 

# A tibble: 110 × 5
   term         step estimate  lambda dev.ratio
   <chr>       <dbl>    <dbl>   <dbl>     <dbl>
 1 (Intercept)    72  -3.16   0.00523     0.947
 2 결승전         72  -2.71   0.00523     0.947
 3 공격           72  -1.23   0.00523     0.947
 4 관중           72  -0.0206 0.00523     0.947
 5 근처           72  -3.86   0.00523     0.947
 6 물의           72  -0.0143 0.00523     0.947
 7 순위           72  -2.70   0.00523     0.947
 8 포인트         72  -0.0141 0.00523     0.947
 9 新             72  -2.66   0.00523     0.947
10 기후           72  -0.607  0.00523     0.947
# … with 100 more rows
…
